…
```r
print (df_hydro_summ)
```

```
## # A tibble: 327 x 23
## # Groups:   Year, Quarter [109]
##     Year Quarter Depth    Temperatur  Salt Tetthet     O2 O2_metning   PO4
##    <dbl>   <dbl> <fct>         <dbl> <dbl>   <dbl>  <dbl>      <dbl> <dbl>
##  1  1990       1 Deep           6.83  33.7    26.4 NaN         NaN     NaN
##  2  1990       1 Interme~       6.51  33.0    25.9 NaN         NaN     NaN
##  3  1990       1 Surface        5.99  31.8    25.0 NaN         NaN     NaN
##  4  1990       2 Deep           6.75  34.1    26.7   6.81       99.3   NaN
##  5  1990       2 Interme~       6.85  32.8    25.7   6.99      101.    NaN
##  6  1990       2 Surface        7.66  29.1    22.6   7.32      104.    NaN
##  7  1990       3 Deep          10.4   34.6    26.6   5.68       85.9   NaN
##  8  1990       3 Interme~      12.5   33.4    25.2   5.90       92.9   NaN
##  9  1990       3 Surface       15.4   28.7    21.0   6.31      102.    NaN
## 10  1990       4 Deep          12.0   34.4    26.1   5.45       88.1   NaN
## # ... with 317 more rows, and 14 more variables: NO2 <dbl>, NO3 <dbl>,
## #   NO2_NO3 <dbl>, NH4 <dbl>, SiO4 <dbl>, N_P <dbl>, Klorofyll <dbl>,
## #   TotP <dbl>, TotN <dbl>, POP <dbl>, PON <dbl>, POC <dbl>, TSM <dbl>,
## #   Siktdyp <dbl>
```
…
